^C:\Users\david\Documents\STUDIA\AIR\VI semestr\SPD\3.WiTi\WiTi\WiTi\WiTi.vcxproj
C:\Users\david\Documents\STUDIA\AIR\VI semestr\SPD\3.WiTi\WiTi\Release\WiTi.ipdb
C:\Users\david\Documents\STUDIA\AIR\VI semestr\SPD\3.WiTi\WiTi\Release\WiTi.iobj
