^C:\Users\david\Documents\STUDIA\AIR\VI semestr\SPD\RPQ_2\rpq_final\rpq_final\rpq_final.vcxproj
C:\Users\david\Documents\STUDIA\AIR\VI semestr\SPD\RPQ_2\rpq_final\x64\Release\rpq_final.ipdb
C:\Users\david\Documents\STUDIA\AIR\VI semestr\SPD\RPQ_2\rpq_final\x64\Release\rpq_final.iobj
