^C:\USERS\DAVID\DOCUMENTS\STUDIA\AIR\VI SEMESTR\SPD\RPQ_2\RPQ_LAB_2\RPQ_LAB_2\ŹRÓDŁO.CPP
C:\USERS\DAVID\DOCUMENTS\STUDIA\AIR\VI SEMESTR\SPD\RPQ_2\RPQ_LAB_2\RPQ_LAB_2\RELEASE\VC141.PDB
C:\USERS\DAVID\DOCUMENTS\STUDIA\AIR\VI SEMESTR\SPD\RPQ_2\RPQ_LAB_2\RPQ_LAB_2\RELEASE\ŹRóDłO.OBJ
